{
  "Avg": {
    "nprocs": 5.0,
    "nthreads": 18.0,
    "pss": 12572.0,
    "rchar": 425005.0,
    "read_bytes": 18071296.0,
    "rss": 29068.0,
    "rx_bytes": 4839.0,
    "rx_packets": 7.937,
    "swap": 0.0,
    "tx_bytes": 85.875,
    "tx_packets": 0.812,
    "vmem": 2126016.0,
    "wchar": 25577.0,
    "write_bytes": 7680.0
  },
  "HW": {
    "cpu": {
      "CPUs": 48,
      "CoresPerSocket": 12,
      "ModelName": "Intel(R) Xeon(R) Gold 5118 CPU @ 2.30GHz",
      "Sockets": 2,
      "ThreadsPerCore": 2
    },
    "mem": {
      "MemTotal": 196329848
    }
  },
  "Max": {
    "nprocs": 5,
    "nthreads": 18,
    "pss": 12572,
    "rchar": 6800086,
    "read_bytes": 289140736,
    "rss": 29068,
    "rx_bytes": 77429,
    "rx_packets": 127,
    "stime": 2,
    "swap": 0,
    "tx_bytes": 1374,
    "tx_packets": 13,
    "utime": 0,
    "vmem": 2126016,
    "wchar": 409234,
    "write_bytes": 122880,
    "wtime": 16
  },
  "prmon": {
    "Version": "2.2.0"
  }
}
